{
    "Scheduler": {
        "Schedulerdetails": [
            {
                "date_and_time": "2018-01-10 11:02:15",
                "injection_point": "IN102",
                "injection_quantity": 100,
                "offtake_point": "OF102",
                "offtake_quantity": 100,
                "schedulerid": 1
            },
            {
                "date_and_time": "2018-01-10 11:02:15",
                "injection_point": "IN103",
                "injection_quantity": 100,
                "offtake_point": "OF103",
                "offtake_quantity": 100,
                "schedulerid": 11
            },
            {
                "date_and_time": "2018-01-10 11:06:41",
                "injection_point": "IN102",
                "injection_quantity": 100,
                "offtake_point": "OF102",
                "offtake_quantity": 100,
                "schedulerid": 31
            }   ,
             {
                "date_and_time": "2018-01-10 3:02:15",
                "injection_point": "IN102",
                "injection_quantity": 100,
                "offtake_point": "OF102",
                "offtake_quantity": 100,
                "schedulerid": 1
            },
            {
                "date_and_time": "2018-01-10 14:02:15",
                "injection_point": "IN103",
                "injection_quantity": 100,
                "offtake_point": "OF103",
                "offtake_quantity": 100,
                "schedulerid": 11
            },
            {
                "date_and_time": "2018-01-10 22:06:41",
                "injection_point": "IN102",
                "injection_quantity": 100,
                "offtake_point": "OF102",
                "offtake_quantity": 100,
                "schedulerid": 31
            }   
        ]
    }
}